Journal (reproducible report)
…
2.2 Web scrapping

Scrape one of the competitor websites of canyon (https://www.radon-bikes.de) and create a small database:

data_bikes_tbl = readRDS("DS_101/00_data/07_data_journal/data_bikes_tbl.rds")
print(data_bikes_tbl)

## # A tibble: 115 x 5
##    position model        category       price url                               
##       <int> <chr>        <chr>          <chr> <glue>                            
##  1        1 JEALOUS8.0   mountainbike_~ 2599~ https://www.radon-bikes.de/en/mou~
##  2        2 JEALOUS9.0   mountainbike_~ 2999~ https://www.radon-bikes.de/en/mou~
##  3        3 JEALOUS10.0  mountainbike_~ 3999~ https://www.radon-bikes.de/en/mou~
##  4        4 JEALOUS10.0~ mountainbike_~ 5299~ https://www.radon-bikes.de/en/mou~
##  5        5 JEALOUS10.0  mountainbike_~ 3699~ https://www.radon-bikes.de/en/mou~
##  6        6 JEALOUS10.0~ mountainbike_~ 3799€ https://www.radon-bikes.de/en/mou~
##  7        7 NEWJEALOUSS~ mountainbike_~ 999 € https://www.radon-bikes.de/en/mou~
##  8        8 JEALOUSAL8.0 mountainbike_~ 999 € https://www.radon-bikes.de/en/mou~
##  9        9 JEALOUSAL8.~ mountainbike_~ 1299~ https://www.radon-bikes.de/en/mou~
## 10       10 JEALOUSAL9.0 mountainbike_~ 1499~ https://www.radon-bikes.de/en/mou~
## # ... with 105 more rows

3 Challenge 3 -> Data Wrangling

In this challenge I had some problems processing the patent.tsv, then I decided to use the files that were given by one of the tutors in mattermost. Here are the results. Also the .tsv files didn’t have information about the country then all of these solutions are for companies worldwide. If there was information about countries then, doing something like a filter where country was equal to US will have been enough to limit the search.

3.1 Patent Dominance

What US company / corporation has the most patents? List the 10 US companies with the most assigned/granted patents.

patent_dominance_tbl = readRDS("DS_101/00_data/07_data_journal/patent_dominance_tbl.rds")
print(patent_dominance_tbl)

## # A tibble: 47,011 x 3
## # Groups:   assignee_id [47,011]
##    assignee_id              organization                             num_patents
##    <chr>                    <chr>                                          <int>
##  1 org_ONzMjdbZXiKfw4L0cXl6 International Business Machines Corpora~        7547
##  2 org_pCbqlmAg8wlWzoi18ITD Samsung Electronics Co., Ltd.                   5835
##  3 org_eAKK85fawH0NS7AdXOig Canon Kabushiki Kaisha                          4099
##  4 org_g8U335TH48QmGJOIQnNl Sony Corporation                                3326
##  5 org_LKW5uc4C9BNTBapFdHzJ Microsoft Corporation                           3165
##  6 org_LRPLF1XVb00MQdPndIbu Google Inc.                                     2668
##  7 org_EccJQIigrq4WyGinD0b8 Kabushiki Kaisha Toshiba                        2656
##  8 org_adUSPYdjFbyHvoVakUrc QUALCOMM Incorporated                           2597
##  9 org_dfvuIWENawcU6lTd1Z3w LG Electronics Inc.                             2459
## 10 org_h5J6cVWyUahTuvNuksTb Panasonic Corporation                           2218
## # ... with 47,001 more rows
…
